…
    # Flatten to a df with install_scripts as a column
    tibble(pkg = pkg_names, x = all_json) |> 
        unnest_wider(x) |> 
        unnest_longer(requirements) |> 
        unnest_wider(requirements) |> 
        unnest_wider(requirements) |> 
        unnest_longer(install_scripts)
}

get_install_scripts("sf")

# get them all
all_pkgs <- get_install_scripts(pkg_names)

#> # A tibble: 44 × 4
#>    pkg        name  packages   install_scripts                        
#>    <chr>      <chr> <list>     <chr>                                  
#>  1 DBI        <NA>  <NULL>     <NA>                                   
#>  2 KernSmooth <NA>  <NULL>     <NA>                                   
#>  3 MASS       <NA>  <NULL>     <NA>                                   
#>  4 R6         <NA>  <NULL>     <NA>                                   
#>  5 Rcpp       <NA>  <NULL>     <NA>                                   
#>  6 arrow      arrow <list [2]> apt-get install -y libcurl4-openssl-dev
#>  7 arrow      arrow <list [2]> apt-get install -y libssl-dev          
#>  8 assertthat <NA>  <NULL>     <NA>                                   
#>  9 bit        <NA>  <NULL>     <NA>                                   
#> 10 bit64      <NA>  <NULL>     <NA>                                   
#> # ℹ 34 more rows
#> # ℹ Use `print(n = ...)` to see more rows
…
